{
  "images" : [
    {
      "idiom" : "universal",
      "filename" : "city-people-collection-x10-3d-model-low-poly-max-obj-3ds-fbx-ma-mb-mtl.png",
      "scale" : "1x"
    },
    {
      "idiom" : "universal",
      "filename" : "city-people-collection-x10-3d-model-low-poly-max-obj-3ds-fbx-ma-mb-mtl@2x.png",
      "scale" : "2x"
    },
    {
      "idiom" : "universal",
      "filename" : "city-people-collection-x10-3d-model-low-poly-max-obj-3ds-fbx-ma-mb-mtl@3x.png",
      "scale" : "3x"
    }
  ],
  "info" : {
    "version" : 1,
    "author" : "xcode"
  }
}